DM - I-235 @ Euclid (02),rtsp://205.221.66.10:1935/live/dmtv02lb.stream/
DM - I-235 @ Guthrie (03),rtsp://205.221.66.10:1935/live/dmtv03lb.stream/
DM - I-235 @ E 21st (04),rtsp://205.221.66.10:1935/live/dmtv04lb.stream/
DM - I-235 @ E 14th (05),rtsp://205.221.66.10:1935/live/dmtv05lb.stream/
DM - I-235 @ E 12th (06),rtsp://205.221.66.10:1935/live/dmtv06lb.stream/
DM - I-235 @ 2nd Ave (07),rtsp://205.221.66.10:1935/live/dmtv07lb.stream/
DM - I-235 @ 7th Ave (08),rtsp://205.221.66.10:1935/live/dmtv08lb.stream/
DM - I-235 @ Keo Way (09),rtsp://205.221.66.10:1935/live/dmtv09lb.stream/
DM - I-235 @ MLK (10),rtsp://205.221.66.10:1935/live/dmtv10lb.stream/
DM - I-235 @ 28th St (11),rtsp://205.221.66.10:1935/live/dmtv11lb.stream/
DM - I-235 @ 31st St  (12),rtsp://205.221.66.10:1935/live/dmtv12lb.stream/
DM - I-235 @ 42nd St (13),rtsp://205.221.66.10:1935/live/dmtv13lb.stream/
DM - I-235 @ Polk Blvd (14),rtsp://205.221.66.10:1935/live/dmtv14lb.stream/
DM - I-235 @ 63rd St (15),rtsp://205.221.66.10:1935/live/dmtv15lb.stream/
DM - I-235 @ 22nd St in WDM (16),rtsp://205.221.66.10:1935/live/dmtv16lb.stream/
DM - I-235 @ Valley West in WDM (17),rtsp://205.221.66.10:1935/live/dmtv17lb.stream/
DM - I-80 @ Jordan Creek (18),rtsp://205.221.66.10:1935/live/dmtv18lb.stream/
DM - I-35/80 @ Hickman (19),rtsp://205.221.66.10:1935/live/dmtv19lb.stream/
DM - I-35/80 @ Hwy 141 (20),rtsp://205.221.66.10:1935/live/dmtv20lb.stream/
DM - I-35/80 @ 86th St (21),rtsp://205.221.66.10:1935/live/dmtv21lb.stream/
DM - I-35/80 @ Merle Hay (22),rtsp://205.221.66.10:1935/live/dmtv22lb.stream/
DM - I-35/80 @ 2nd Ave (23),rtsp://205.221.66.10:1935/live/dmtv23lb.stream/
DM - I-35/80 @ E 14th (24),rtsp://205.221.66.10:1935/live/dmtv24lb.stream/
DM - I-35 @ Corporate Woods Dr (37),rtsp://205.221.66.10:1935/live/dmtv37lb.stream/
DM - I-35 @ Oralabor (40),rtsp://205.221.66.10:1935/live/dmtv40lb.stream/
DM - I-35 @ 1st St in Ankeny (41),rtsp://205.221.66.10:1935/live/dmtv41lb.stream/
DM - I-35/80 @ Douglas (42),rtsp://205.221.66.10:1935/live/dmtv42lb.stream/
DM - I-35/80 @ Morningstar (43),rtsp://205.221.66.10:1935/live/dmtv43lb.stream/
DM - I-35/80/235 @ West Mixmaster (44),rtsp://205.221.66.10:1935/live/dmtv44lb.stream/
DM - I-80 @ Grand Prairie Pkwy (48),rtsp://205.221.66.10:1935/live/dmtv48lb.stream/
DM - I-35/80 @ University (51),rtsp://205.221.66.10:1935/live/dmtv51lb.stream/
DM - I-35/80 @ NE 22nd St (52),rtsp://205.221.66.10:1935/live/dmtv52lb.stream/
DM - I-35 @ Corporate Woods (53),rtsp://205.221.66.10:1935/live/dmtv53lb.stream/
DM - I-80 @ 38th in Altoona (54),rtsp://205.221.66.10:1935/live/dmtv54lb.stream/
DM - I-35 @ Ashworth Ave (55),rtsp://205.221.66.10:1935/live/dmtv55lb.stream/
DM - I-35/80 @ Meredith Dr (57),rtsp://205.221.66.10:1935/live/dmtv57lb.stream/
DM - I-35/80/235 @ NE Mixmaster (01),rtsp://205.221.66.10:1935/live/dmtv01lb.stream/
D1 - I-35 @ US 20 Williams (D1TV10),rtsp://205.221.97.105:1935/live/d1tv10lb.stream/
AM - I-35 @ IA 210 (01),rtsp://205.221.97.105:1935/live/amtv01lb.stream/
AM - I-35 @ Heart of Iowa Nature Trail (02),rtsp://205.221.97.105:1935/live/amtv02lb.stream/
DM - I-35 @ Mile Post 94 (60),rtsp://205.221.97.105:1935/live/dmtv60lb.stream/
DM - I-35 @ NE 36th St (61),rtsp://205.221.97.105:1935/live/dmtv61lb.stream/
DM - I-35 @ NE 126 Ave (62),rtsp://205.221.97.105:1935/live/dmtv62lb.stream/
DM - I-35 @ NE 142 Ave (63),rtsp://205.221.97.105:1935/live/dmtv63lb.stream/
DM - I-35 @ NE 158 Ave (64),rtsp://205.221.97.105:1935/live/dmtv64lb.stream/
AM - I-35 @ Mile Post 107.8 (04),rtsp://205.221.97.105:1935/live/amtv04lb.stream/
AM - I-35 @ US 30 (06),rtsp://205.221.97.105:1935/live/amtv06lb.stream/
AM - I-35 @ US 30 (07),rtsp://205.221.97.105:1935/live/amtv07lb.stream/
AM - I35 @ E Lincoln Way (08),rtsp://205.221.97.105:1935/live/amtv08lb.stream/
AM - I-35 @ E 13th St (09),rtsp://205.221.97.105:1935/live/amtv09lb.stream/
AM - I-35 @ E 190th St (10),rtsp://205.221.97.105:1935/live/amtv10lb.stream/
DM - I-35 @ NE Mixmaster (North) (69),rtsp://205.221.66.10:1935/live/dmtv69lb.stream/
DM - I-80 E Exit to N I-35 (67),rtsp://205.221.66.10:1935/live/dmtv67lb.stream/
DM - I-35/80 @ Westown PKWY (68),rtsp://205.221.66.10:1935/live/dmtv68lb.stream/
DM - I-235 @ University (71),rtsp://205.221.66.10:1935/live/dmtv71lb.stream/
DM - I-235 @ 42nd WSM (72),rtsp://205.221.66.10:1935/live/dmtv72lb.stream/